%YAML 1.1
%TAG !u! tag:unity3d.com,2011:
--- !u!1 &156286
GameObject:
  m_ObjectHideFlags: 0
  m_CorrespondingSourceObject: {fileID: 0}
  m_PrefabInstance: {fileID: 0}
  m_PrefabAsset: {fileID: 0}
  serializedVersion: 6
  m_Component:
  - component: {fileID: 476556}
  - component: {fileID: 3389448}
  - component: {fileID: 2314214}
  - component: {fileID: 11449124}
  m_Layer: 9
  m_Name: BonePick
  m_TagString: Untagged
  m_Icon: {fileID: 0}
  m_NavMeshLayer: 0
  m_StaticEditorFlags: 0
  m_IsActive: 1
--- !u!4 &476556
Transform:
  m_ObjectHideFlags: 0
  m_CorrespondingSourceObject: {fileID: 0}
  m_PrefabInstance: {fileID: 0}
  m_PrefabAsset: {fileID: 0}
  m_GameObject: {fileID: 156286}
  m_LocalRotation: {x: -0.6123726, y: -0.3535534, z: 0.35355332, w: -0.61237234}
  m_LocalPosition: {x: -0.8450009, y: -0.35600105, z: -0.603}
  m_LocalScale: {x: 0.6, y: 0.6, z: 0.6}
  m_Children: []
  m_Father: {fileID: 0}
  m_RootOrder: 0
  m_LocalEulerAnglesHint: {x: 0, y: 0, z: 0}
--- !u!33 &3389448
MeshFilter:
  m_ObjectHideFlags: 0
  m_CorrespondingSourceObject: {fileID: 0}
  m_PrefabInstance: {fileID: 0}
  m_PrefabAsset: {fileID: 0}
  m_GameObject: {fileID: 156286}
  m_Mesh: {fileID: 4300020, guid: ec5deb6b4913fc44eb38280754809859, type: 3}
--- !u!23 &2314214
MeshRenderer:
  m_ObjectHideFlags: 0
  m_CorrespondingSourceObject: {fileID: 0}
  m_PrefabInstance: {fileID: 0}
  m_PrefabAsset: {fileID: 0}
  m_GameObject: {fileID: 156286}
  m_Enabled: 1
  m_CastShadows: 1
  m_ReceiveShadows: 1
  m_DynamicOccludee: 1
  m_MotionVectors: 1
  m_LightProbeUsage: 1
  m_ReflectionProbeUsage: 1
  m_RayTracingMode: 2
  m_RenderingLayerMask: 1
  m_RendererPriority: 0
  m_Materials:
  - {fileID: 2100000, guid: 7b77b865daded2b459602e48d92c8ef8, type: 2}
  m_StaticBatchInfo:
    firstSubMesh: 0
    subMeshCount: 0
  m_StaticBatchRoot: {fileID: 0}
  m_ProbeAnchor: {fileID: 0}
  m_LightProbeVolumeOverride: {fileID: 0}
  m_ScaleInLightmap: 1
  m_ReceiveGI: 1
  m_PreserveUVs: 0
  m_IgnoreNormalsForChartDetection: 0
  m_ImportantGI: 0
  m_StitchLightmapSeams: 1
  m_SelectedEditorRenderState: 3
  m_MinimumChartSize: 4
  m_AutoUVMaxDistance: 0.5
  m_AutoUVMaxAngle: 89
  m_LightmapParameters: {fileID: 0}
  m_SortingLayerID: 0
  m_SortingLayer: 0
  m_SortingOrder: 0
--- !u!114 &11449124
MonoBehaviour:
  m_ObjectHideFlags: 0
  m_CorrespondingSourceObject: {fileID: 0}
  m_PrefabInstance: {fileID: 0}
  m_PrefabAsset: {fileID: 0}
  m_GameObject: {fileID: 156286}
  m_Enabled: 1
  m_EditorHideFlags: 0
  m_Script: {fileID: 11500000, guid: 1bd54ddce35ee9442aeb07ddff49370c, type: 3}
  m_Name: 
  m_EditorClassIdentifier: 
  BoyPositionOnHand: {x: -0.128, y: -0.04, z: 0.011}
  BoyRotationOnHand: {x: 60, y: 90, z: -75}
  BoyPositionOnPlayer: {x: -0.845, y: -0.356, z: -0.603}
  BoyRotationOnPlayer: {x: 90, y: 0, z: 300}
  GirlPositionOnHand: {x: -0.089, y: -0.083, z: 0.003}
  GirlRotationOnHand: {x: 60, y: 106, z: -75}
  GirlPositionOnPlayer: {x: -0.845, y: -0.356, z: -0.603}
  GirlRotationOnPlayer: {x: 90, y: 0, z: 300}
