%YAML 1.1
%TAG !u! tag:unity3d.com,2011:
--- !u!1 &189806
GameObject:
  m_ObjectHideFlags: 0
  m_CorrespondingSourceObject: {fileID: 0}
  m_PrefabInstance: {fileID: 0}
  m_PrefabAsset: {fileID: 0}
  serializedVersion: 6
  m_Component:
  - component: {fileID: 460264}
  - component: {fileID: 3381664}
  - component: {fileID: 2364954}
  - component: {fileID: 11466710}
  m_Layer: 9
  m_Name: DimondRod
  m_TagString: Untagged
  m_Icon: {fileID: 0}
  m_NavMeshLayer: 0
  m_StaticEditorFlags: 0
  m_IsActive: 1
--- !u!4 &460264
Transform:
  m_ObjectHideFlags: 0
  m_CorrespondingSourceObject: {fileID: 0}
  m_PrefabInstance: {fileID: 0}
  m_PrefabAsset: {fileID: 0}
  m_GameObject: {fileID: 189806}
  m_LocalRotation: {x: -0.16043375, y: 0.63189805, z: -0.7565371, w: 0.05116126}
  m_LocalPosition: {x: -0.097, y: -0.103, z: -0.052}
  m_LocalScale: {x: 0.60000175, y: 0.6000013, z: 0.60000104}
  m_Children: []
  m_Father: {fileID: 0}
  m_RootOrder: 0
  m_LocalEulerAnglesHint: {x: 0, y: 0, z: 0}
--- !u!33 &3381664
MeshFilter:
  m_ObjectHideFlags: 0
  m_CorrespondingSourceObject: {fileID: 0}
  m_PrefabInstance: {fileID: 0}
  m_PrefabAsset: {fileID: 0}
  m_GameObject: {fileID: 189806}
  m_Mesh: {fileID: 4300024, guid: ec5deb6b4913fc44eb38280754809859, type: 3}
--- !u!23 &2364954
MeshRenderer:
  m_ObjectHideFlags: 0
  m_CorrespondingSourceObject: {fileID: 0}
  m_PrefabInstance: {fileID: 0}
  m_PrefabAsset: {fileID: 0}
  m_GameObject: {fileID: 189806}
  m_Enabled: 1
  m_CastShadows: 1
  m_ReceiveShadows: 1
  m_DynamicOccludee: 1
  m_MotionVectors: 1
  m_LightProbeUsage: 1
  m_ReflectionProbeUsage: 1
  m_RayTracingMode: 2
  m_RenderingLayerMask: 1
  m_RendererPriority: 0
  m_Materials:
  - {fileID: 2100000, guid: 092a3915f5902254e95ff1d04fe9b71f, type: 2}
  m_StaticBatchInfo:
    firstSubMesh: 0
    subMeshCount: 0
  m_StaticBatchRoot: {fileID: 0}
  m_ProbeAnchor: {fileID: 0}
  m_LightProbeVolumeOverride: {fileID: 0}
  m_ScaleInLightmap: 1
  m_ReceiveGI: 1
  m_PreserveUVs: 0
  m_IgnoreNormalsForChartDetection: 0
  m_ImportantGI: 0
  m_StitchLightmapSeams: 1
  m_SelectedEditorRenderState: 3
  m_MinimumChartSize: 4
  m_AutoUVMaxDistance: 0.5
  m_AutoUVMaxAngle: 89
  m_LightmapParameters: {fileID: 0}
  m_SortingLayerID: 0
  m_SortingLayer: 0
  m_SortingOrder: 0
--- !u!114 &11466710
MonoBehaviour:
  m_ObjectHideFlags: 0
  m_CorrespondingSourceObject: {fileID: 0}
  m_PrefabInstance: {fileID: 0}
  m_PrefabAsset: {fileID: 0}
  m_GameObject: {fileID: 189806}
  m_Enabled: 1
  m_EditorHideFlags: 0
  m_Script: {fileID: 11500000, guid: 1bd54ddce35ee9442aeb07ddff49370c, type: 3}
  m_Name: 
  m_EditorClassIdentifier: 
  BoyPositionOnHand: {x: -0.07, y: -0.07, z: -0.03}
  BoyRotationOnHand: {x: 56, y: 203, z: 13}
  BoyPositionOnPlayer: {x: -0.8, y: -0.3, z: -0.85}
  BoyRotationOnPlayer: {x: 283, y: 107, z: 115}
  GirlPositionOnHand: {x: -0.07, y: -0.07, z: -0.03}
  GirlRotationOnHand: {x: 56, y: 203, z: 13}
  GirlPositionOnPlayer: {x: -0.8, y: -0.3, z: -0.85}
  GirlRotationOnPlayer: {x: 283, y: 107, z: 115}
