%YAML 1.1
%TAG !u! tag:unity3d.com,2011:
--- !u!221 &22100000
AnimatorOverrideController:
  m_ObjectHideFlags: 0
  m_CorrespondingSourceObject: {fileID: 0}
  m_PrefabInstance: {fileID: 0}
  m_PrefabAsset: {fileID: 0}
  m_Name: ElefantOverride
  m_Controller: {fileID: 9100000, guid: 757dd33109aba5342a8e9aa73dacb1b4, type: 2}
  m_Clips:
  - m_OriginalClip: {fileID: 7400010, guid: a3ed9816a4f32fa4f8d3bbf284b5e297, type: 3}
    m_OverrideClip: {fileID: 7400010, guid: b79096de994207d4ea7a7683b60dd3f5, type: 3}
  - m_OriginalClip: {fileID: 7400002, guid: a3ed9816a4f32fa4f8d3bbf284b5e297, type: 3}
    m_OverrideClip: {fileID: 7400002, guid: b79096de994207d4ea7a7683b60dd3f5, type: 3}
  - m_OriginalClip: {fileID: 7400004, guid: a3ed9816a4f32fa4f8d3bbf284b5e297, type: 3}
    m_OverrideClip: {fileID: 7400004, guid: b79096de994207d4ea7a7683b60dd3f5, type: 3}
  - m_OriginalClip: {fileID: 7400008, guid: a3ed9816a4f32fa4f8d3bbf284b5e297, type: 3}
    m_OverrideClip: {fileID: 7400008, guid: b79096de994207d4ea7a7683b60dd3f5, type: 3}
  - m_OriginalClip: {fileID: 7400006, guid: a3ed9816a4f32fa4f8d3bbf284b5e297, type: 3}
    m_OverrideClip: {fileID: 7400006, guid: b79096de994207d4ea7a7683b60dd3f5, type: 3}
  - m_OriginalClip: {fileID: 7400012, guid: a3ed9816a4f32fa4f8d3bbf284b5e297, type: 3}
    m_OverrideClip: {fileID: 7400012, guid: b79096de994207d4ea7a7683b60dd3f5, type: 3}
  - m_OriginalClip: {fileID: 7400014, guid: a3ed9816a4f32fa4f8d3bbf284b5e297, type: 3}
    m_OverrideClip: {fileID: 7400014, guid: b79096de994207d4ea7a7683b60dd3f5, type: 3}
  - m_OriginalClip: {fileID: 7400016, guid: a3ed9816a4f32fa4f8d3bbf284b5e297, type: 3}
    m_OverrideClip: {fileID: 7400016, guid: b79096de994207d4ea7a7683b60dd3f5, type: 3}
  - m_OriginalClip: {fileID: 7400018, guid: a3ed9816a4f32fa4f8d3bbf284b5e297, type: 3}
    m_OverrideClip: {fileID: 7400018, guid: b79096de994207d4ea7a7683b60dd3f5, type: 3}
  - m_OriginalClip: {fileID: 7400020, guid: a3ed9816a4f32fa4f8d3bbf284b5e297, type: 3}
    m_OverrideClip: {fileID: 7400020, guid: b79096de994207d4ea7a7683b60dd3f5, type: 3}
  - m_OriginalClip: {fileID: 7400022, guid: a3ed9816a4f32fa4f8d3bbf284b5e297, type: 3}
    m_OverrideClip: {fileID: 7400022, guid: b79096de994207d4ea7a7683b60dd3f5, type: 3}
  - m_OriginalClip: {fileID: 7400024, guid: a3ed9816a4f32fa4f8d3bbf284b5e297, type: 3}
    m_OverrideClip: {fileID: 7400024, guid: b79096de994207d4ea7a7683b60dd3f5, type: 3}
  - m_OriginalClip: {fileID: 7400026, guid: a3ed9816a4f32fa4f8d3bbf284b5e297, type: 3}
    m_OverrideClip: {fileID: 7400026, guid: b79096de994207d4ea7a7683b60dd3f5, type: 3}
