%YAML 1.1
%TAG !u! tag:unity3d.com,2011:
--- !u!1045 &1
EditorBuildSettings:
  m_ObjectHideFlags: 0
  serializedVersion: 2
  m_Scenes:
  - enabled: 1
    path: Assets/Project/Scene/FirstScene.unity
    guid: c12d6163289a4c646980c7cec7afc0fe
  - enabled: 1
    path: Assets/Project/Scene/Login.unity
    guid: 6e4632b6567b524439558a097a825271
  - enabled: 1
    path: Assets/Project/Scene/Game.unity
    guid: 631ffbff5c59bdf4989d7e5fc980b462
  - enabled: 1
    path: Assets/Project/Scene/Load.unity
    guid: 3aebf92de276da045ba5f8771b4520bd
  - enabled: 1
    path: Assets/Project/Scene/Menu.unity
    guid: 776d8374b94ab714c919f5bfaf16ad5c
  - enabled: 1
    path: Assets/Project/Scene/Tutorial.unity
    guid: fda875d2837fc194dac225e1f33d1783
  m_configObjects: {}
